INDEX VERSION 1.127+C:\Users\Filosi\workspace\projekt\klient\.metadata\.plugins\org.eclipse.jdt.core
3482790767.index
2875811589.index
2456716526.index
1729398355.index
3664481068.index
1440433668.index
689350060.index
2658843718.index
3020013953.index
36582396.index
3912384510.index
1956581756.index
2414241960.index
3886672373.index
418878299.index
582844924.index
274947791.index
3353549174.index
3538529481.index
